{
  "store.custom#cambios-y-devoluciones": {
    "blocks": [
      "flex-layout.row#cambios-y-devoluciones"
    ]
  },

  "flex-layout.row#cambios-y-devoluciones": {
    "children": [
      "flex-layout.col#cambios-y-devoluciones"
    ],
    "props": {
      "blockclass": "textColumn",
      "preventVerticalStretch": true
    }    
  },

  "flex-layout.col#cambios-y-devoluciones": {
    "children": [
      "rich-text#title-cambios-y-devoluciones",
      "rich-text#cambios-y-devoluciones-1",
      "flex-layout.row#cambios-y-devoluciones-tabla-conatiner-1",
      "rich-text#cambios-y-devoluciones-2",
      "flex-layout.row#cambios-y-devoluciones-tabla-conatiner-2",
      "rich-text#cambios-y-devoluciones-3"
    ],
    "props": {
      "blockclass": "textColumn",
      "preventVerticalStretch": true
    }    
  },  

  "rich-text#title-cambios-y-devoluciones": {
    "props": {
      "text":
      "TÉRMINOS Y CONDICIONES GENERALES DE USO",
      "blockClass": "title"
    }
  },

  "rich-text#cambios-y-devoluciones-1": {
    "props": {
      "text": "Antes de acceder a los servicios ofrecidos por la empresa SOLIDEZ EMPRESARIAL S.A. CON SU MARCA COMERCIAL COLISEUM (en adelante LA EMPRESA) a través de su sitio web  WWW.COLISEUM.COM.PE,",
      "blockClass": "about"
    }
  },

  "flex-layout.row#cambios-y-devoluciones-tabla-conatiner-1": {    
    "children": [
      "flex-layout.col#cambios-y-devoluciones-tabla-1"
    ],
    "props": {
      "horizontalAlign": "center"
    }     
  },
  "flex-layout.col#cambios-y-devoluciones-tabla-1": {    
    "children": [
      "flex-layout.row#cambios-y-devoluciones-tabla-11",
      "flex-layout.row#cambios-y-devoluciones-tabla-12",
      "flex-layout.row#cambios-y-devoluciones-tabla-13",
      "flex-layout.row#cambios-y-devoluciones-tabla-14",
      "flex-layout.row#cambios-y-devoluciones-tabla-15",
      "flex-layout.row#cambios-y-devoluciones-tabla-16"
      //"flex-layout.row#cambios-y-devoluciones-tabla-17",
      //"flex-layout.row#cambios-y-devoluciones-tabla-18"
    ],
    "props": {
      "width": "95%",
      "preventVerticalStretch": true,
      "blockClass": "cambios-y-devoluciones-tabla"
    }          
  },  

  "flex-layout.row#cambios-y-devoluciones-tabla-11": {   
    "children": [
      "rich-text#celda-cambios-y-devoluciones-1-11",
      "rich-text#celda-cambios-y-devoluciones-1-12",
      "rich-text#celda-cambios-y-devoluciones-1-13"
    ],
    "props": {
      "blockClass": "titulo-cambios-y-devoluciones-mobil"
    }      
  },
  "rich-text#celda-cambios-y-devoluciones-1-11": {
    "props": {
      "width": "30%",
      "text": "",
      "blockClass": "titulo-cambios-y-devoluciones"
    }
  },
  "rich-text#celda-cambios-y-devoluciones-1-12": {
    "props": {
      "text": "Compras realizadas en tiendas físicas",
      "blockClass": "titulo-cambios-y-devoluciones"
    }
  },
  "rich-text#celda-cambios-y-devoluciones-1-13": {
    "props": {
      "text": "Compras realizadas en eCommerce",
      "blockClass": "titulo-cambios-y-devoluciones"
    }
  },  

  "flex-layout.row#cambios-y-devoluciones-tabla-12": {   
    "children": [
      "rich-text#celda-cambios-y-devoluciones-1-21",
      "rich-text#celda-cambios-y-devoluciones-1-22"
    ],
    "props": {
      "blockClass": "titulo-cambios-y-devoluciones-mobil"
    }       
  },
  "rich-text#celda-cambios-y-devoluciones-1-21": {
    "props": {
      "width": "30%",
      "text": "**¿Dónde efectuarlo?**",
      "blockClass": "celda-cambios-y-devoluciones"
    }
  },
  "rich-text#celda-cambios-y-devoluciones-1-22": {
    "props": {
      "text": "Puedes dirigirte directamente a la tienda física en la cual realizaste tu compra o a cualquiera de nuestras tiendas físicas a nivel nacional (con excepción de Coliseum Outlet).",
      "blockClass": "celda-cambios-y-devoluciones"
    }
  },

  "flex-layout.row#cambios-y-devoluciones-tabla-13": {   
    "children": [
      "rich-text#celda-cambios-y-devoluciones-1-31",
      "rich-text#celda-cambios-y-devoluciones-1-32"
    ],
    "props": {
      "blockClass": "titulo-cambios-y-devoluciones-mobil"
    }       
  },
  "rich-text#celda-cambios-y-devoluciones-1-31": {
    "props": {
      "width": "30%",
      "text": "**Condiciones particulares**",
      "blockClass": "celda-cambios-y-devoluciones"
    }
  },
  "rich-text#celda-cambios-y-devoluciones-1-32": {
    "props": {
      "text": "Los cambios de productos están sujetos a disponibilidad de stock de cada establecimiento.<br><br><br>No se aceptan cambios de productos de la categoría Outlet (web), lo señalado no aplica si el producto no cumple con las especificaciones señaladas en la orden de compra (tallas, colores, si existiese algún error en la entrega, entre otros); existan defectos de origen en el producto u otros derivados del uso normalmente previsible; el producto no resulte adecuado para el uso previsto; no exista stock; entre otros supuestos. <br><br>Para cambios de talla, el precio del producto se mantiene; es decir, no se cobrará ningún adicional.",
      "blockClass": "celda-cambios-y-devoluciones"
    }
  },

  "flex-layout.row#cambios-y-devoluciones-tabla-14": {   
    "children": [
      "rich-text#celda-cambios-y-devoluciones-1-41",
      "rich-text#celda-cambios-y-devoluciones-1-42"
    ],
    "props": {
      "blockClass": "titulo-cambios-y-devoluciones-mobil"
    }       
  },
  "rich-text#celda-cambios-y-devoluciones-1-41": {
    "props": {
      "width": "30%",
      "text": "**Por productos del mismo valor** <br>(Previa aprobación de la evaluación del producto)",
      "blockClass": "celda-cambios-y-devoluciones"
    }
  },
  "rich-text#celda-cambios-y-devoluciones-1-42": {
    "props": {
      "text": "El cambio se realiza sin ningún cobro adicional ni devolución dineraria.",
      "blockClass": "celda-cambios-y-devoluciones"
    }
  },

  "flex-layout.row#cambios-y-devoluciones-tabla-15": {   
    "children": [
      "rich-text#celda-cambios-y-devoluciones-1-51",
      "rich-text#celda-cambios-y-devoluciones-1-52"
    ],
    "props": {
      "blockClass": "titulo-cambios-y-devoluciones-mobil"
    }        
  },
  "rich-text#celda-cambios-y-devoluciones-1-51": {
    "props": {
      "width": "30%",
      "text": "**Por productos de mayor valor** <br>(Previa aprobación de la evaluación del producto)",
      "blockClass": "celda-cambios-y-devoluciones"
    }
  },
  "rich-text#celda-cambios-y-devoluciones-1-52": {
    "props": {
      "text": "El cambio se realizará efectuando el cobro de dinero por la diferencia entre el nuevo producto (de mayor valor) y el producto adquirido inicialmente (de menor valor).",
      "blockClass": "celda-cambios-y-devoluciones"
    }
  },

  "flex-layout.row#cambios-y-devoluciones-tabla-16": {   
    "children": [
      "rich-text#celda-cambios-y-devoluciones-1-61",
      "rich-text#celda-cambios-y-devoluciones-1-62"
    ],
    "props": {
      "blockClass": "titulo-cambios-y-devoluciones-mobil"
    }      
  },
  "rich-text#celda-cambios-y-devoluciones-1-61": {
    "props": {
      "width": "30%",
      "text": "**Importante**",
      "blockClass": "celda-cambios-y-devoluciones"
    }
  },
  "rich-text#celda-cambios-y-devoluciones-1-62": {
    "props": {
      "text": "Para las compras efectuadas a través de nuestro canal de eCommerce, el valor de la devolución solo considera el monto pagado por el producto y se descuenta el costo de delivery, de ser aplicable.",
      "blockClass": "celda-cambios-y-devoluciones"
    }
  },

  "flex-layout.row#cambios-y-devoluciones-tabla-17": {   
    "children": [
      "rich-text#celda-cambios-y-devoluciones-1-71",
      "rich-text#celda-cambios-y-devoluciones-1-72"
    ],
    "props": {
      "blockClass": "titulo-cambios-y-devoluciones-mobil"
    }       
  },
  "rich-text#celda-cambios-y-devoluciones-1-71": {
    "props": {
      "width": "30%",
      "text": "Visitante",
      "blockClass": "celda-cambios-y-devoluciones"
    }
  },
  "rich-text#celda-cambios-y-devoluciones-1-72": {
    "props": {
      "text": "Persona natural o jurídica que visita el sitio web sin registrarse como usuario o es usuario de nuestro sitio web",
      "blockClass": "celda-cambios-y-devoluciones"
    }
  },

  "flex-layout.row#cambios-y-devoluciones-tabla-18": {   
    "children": [
      "rich-text#celda-cambios-y-devoluciones-1-81",
      "rich-text#celda-cambios-y-devoluciones-1-82"
    ],
    "props": {
      "blockClass": "titulo-cambios-y-devoluciones-mobil"
    }       
  },
  "rich-text#celda-cambios-y-devoluciones-1-81": {
    "props": {
      "width": "30%",
      "text": "Cliente",
      "blockClass": "celda-cambios-y-devoluciones"
    }
  },
  "rich-text#celda-cambios-y-devoluciones-1-82": {
    "props": {
      "text": "Persona natural o jurídica que efectúa una o más transacciones en nuestro sitio web",
      "blockClass": "celda-cambios-y-devoluciones"
    }
  },

  "rich-text#cambios-y-devoluciones-2": { 
    "props": {
      "text": "Antes de acceder a los servicios ofrecidos por la empresa SOLIDEZ EMPRESARIAL S.A. CON SU MARCA COMERCIAL COLISEUM (en adelante LA EMPRESA) a través de su sitio web  WWW.COLISEUM.COM.PE,",
      "blockClass": "about"
    }
  },

  "flex-layout.row#cambios-y-devoluciones-tabla-conatiner-2": {    
    "children": [
      "flex-layout.col#cambios-y-devoluciones-tabla-2"
    ],
    "props": {
      "horizontalAlign": "center"
    }
  },
  "flex-layout.col#cambios-y-devoluciones-tabla-2": {    
    "children": [
      //"flex-layout.row#cambios-y-devoluciones-tabla-21",
      "flex-layout.row#cambios-y-devoluciones-tabla-22"
      //"flex-layout.row#cambios-y-devoluciones-tabla-23",
      //"flex-layout.row#cambios-y-devoluciones-tabla-24",
      //"flex-layout.row#cambios-y-devoluciones-tabla-25",
      //"flex-layout.row#cambios-y-devoluciones-tabla-26",
      //"flex-layout.row#cambios-y-devoluciones-tabla-27",
      //"flex-layout.row#cambios-y-devoluciones-tabla-28"
    ],
    "props": {
      "width": "95%",
      "preventVerticalStretch": true,
      "blockClass": "cambios-y-devoluciones-tabla"
    }          
  },  

  "flex-layout.row#cambios-y-devoluciones-tabla-21": {   
    "children": [
      "rich-text#celda-cambios-y-devoluciones-2-11",
      "rich-text#celda-cambios-y-devoluciones-2-12"
    ],
    "props": {
      "blockClass": "titulo-cambios-y-devoluciones-mobil"
    }      
  },
  "rich-text#celda-cambios-y-devoluciones-2-11": {
    "props": {
      "text": "Marca",
      "blockClass": "titulo-cambios-y-devoluciones"
    }
  },
  "rich-text#celda-cambios-y-devoluciones-2-12": {
    "props": {
      "text": "Garantía",
      "blockClass": "titulo-cambios-y-devoluciones"
    }
  },

  "flex-layout.row#cambios-y-devoluciones-tabla-22": {   
    "children": [
      "rich-text#celda-cambios-y-devoluciones-2-21",
      "rich-text#celda-cambios-y-devoluciones-2-22"
    ],
    "props": {
      "blockClass": "titulo-cambios-y-devoluciones-mobil"
    }       
  },
  "rich-text#celda-cambios-y-devoluciones-2-21": {
    "props": {
      "width": "20%",
      "text": "**Cambio por cupón (Nuevo pedido)**",
      "blockClass": "celda-cambios-y-devoluciones",            
      "textPosition": "CENTER"
    }
  },
  "rich-text#celda-cambios-y-devoluciones-2-22": {
    "props": {
      "text": "Cuando el pedido proviene de provincia y no tenemos alguna tienda física, el cambio se realiza bajo la modalidad de cupón. Para ello, debes enviar tu solicitud en el horario de Lunes a Viernes de 9:00 a.m. a 10:00 p.m. y Sábados de 9:00 a.m. a 8:00 p.m., a través del correo ecommerce@coliseum-store.com y, en un plazo máximo de 1 día hábil será remitido al correo electrónico que nos precises.<br><br>En el mensaje deberás detallar:<br>- Nro Perdido<br>- DNI Titular de la compra<br>- Código y descripción del producto recibido<br><br>Cuando el área de atención al cliente reciba tu solicitud, te brindaremos el detalle del procedimiento a seguir. <br><br>Luego que nos brindes tu conformidad a nuestro correo, se detallará la dirección a la que debe enviar el producto. Es importante señalar que el cliente es quien asume el costo del envío.<br><br>Una vez que el pedido sea recibido en nuestro almacén, validado y autorizado, recibirás vía mail el cupón que podrás usar en tu próxima compra.",
      "blockClass": "celda-cambios-y-devoluciones"
    }
  },

  "flex-layout.row#cambios-y-devoluciones-tabla-23": {   
    "children": [
      "rich-text#celda-cambios-y-devoluciones-2-31",
      "rich-text#celda-cambios-y-devoluciones-2-32"
    ],
    "props": {
      "blockClass": "titulo-cambios-y-devoluciones-mobil"
    }       
  },
  "rich-text#celda-cambios-y-devoluciones-2-31": {
    "props": {
      "text": "Converse",
      "blockClass": "celda-cambios-y-devoluciones"
    }
  },
  "rich-text#celda-cambios-y-devoluciones-2-32": {
    "props": {
      "text": "6 meses",
      "blockClass": "celda-cambios-y-devoluciones"
    }
  },

  "flex-layout.row#cambios-y-devoluciones-tabla-24": {   
    "children": [
      "rich-text#celda-cambios-y-devoluciones-2-41",
      "rich-text#celda-cambios-y-devoluciones-2-42"
    ],
    "props": {
      "blockClass": "titulo-cambios-y-devoluciones-mobil"
    }       
  },
  "rich-text#celda-cambios-y-devoluciones-2-41": {
    "props": {
      "text": "Merrell",
      "blockClass": "celda-cambios-y-devoluciones"
    }
  },
  "rich-text#celda-cambios-y-devoluciones-2-42": {
    "props": {
      "text": "6 meses",
      "blockClass": "celda-cambios-y-devoluciones"
    }
  },

  "flex-layout.row#cambios-y-devoluciones-tabla-25": {   
    "children": [
      "rich-text#celda-cambios-y-devoluciones-2-51",
      "rich-text#celda-cambios-y-devoluciones-2-52"
    ],
    "props": {
      "blockClass": "titulo-cambios-y-devoluciones-mobil"
    }        
  },
  "rich-text#celda-cambios-y-devoluciones-2-51": {
    "props": {
      "text": "Steve Madden",
      "blockClass": "celda-cambios-y-devoluciones"
    }
  },
  "rich-text#celda-cambios-y-devoluciones-2-52": {
    "props": {
      "text": "3 meses",
      "blockClass": "celda-cambios-y-devoluciones"
    }
  },

  "flex-layout.row#cambios-y-devoluciones-tabla-26": {   
    "children": [
      "rich-text#celda-cambios-y-devoluciones-2-61",
      "rich-text#celda-cambios-y-devoluciones-2-62"
    ],
    "props": {
      "blockClass": "titulo-cambios-y-devoluciones-mobil"
    }      
  },
  "rich-text#celda-cambios-y-devoluciones-2-61": {
    "props": {
      "text": "Madden Girl",
      "blockClass": "celda-cambios-y-devoluciones"
    }
  },
  "rich-text#celda-cambios-y-devoluciones-2-62": {
    "props": {
      "text": "3 mes",
      "blockClass": "celda-cambios-y-devoluciones"
    }
  },

  "flex-layout.row#cambios-y-devoluciones-tabla-27": {   
    "children": [
      "rich-text#celda-cambios-y-devoluciones-2-71",
      "rich-text#celda-cambios-y-devoluciones-2-72"
    ],
    "props": {
      "blockClass": "titulo-cambios-y-devoluciones-mobil"
    }       
  },
  "rich-text#celda-cambios-y-devoluciones-2-71": {
    "props": {
      "text": "Madden",
      "blockClass": "celda-cambios-y-devoluciones"
    }
  },
  "rich-text#celda-cambios-y-devoluciones-2-72": {
    "props": {
      "text": "1 mes",
      "blockClass": "celda-cambios-y-devoluciones"
    }
  },

  "flex-layout.row#cambios-y-devoluciones-tabla-28": {   
    "children": [
      "rich-text#celda-cambios-y-devoluciones-2-81",
      "rich-text#celda-cambios-y-devoluciones-2-82"
    ],
    "props": {
      "blockClass": "titulo-cambios-y-devoluciones-mobil"
    }       
  },
  "rich-text#celda-cambios-y-devoluciones-2-81": {
    "props": {
      "text": "Hi Tec",
      "blockClass": "celda-cambios-y-devoluciones"
    }
  },
  "rich-text#celda-cambios-y-devoluciones-2-82": {
    "props": {
      "text": "6 meses",
      "blockClass": "celda-cambios-y-devoluciones"
    }
  },

  "rich-text#cambios-y-devoluciones-3": {
    "props": {
      "text": "Antes de acceder a los servicios ofrecidos por la empresa SOLIDEZ EMPRESARIAL S.A. CON SU MARCA COMERCIAL COLISEUM (en adelante LA EMPRESA) a través de su sitio web  WWW.COLISEUM.COM.PE,",
      "blockClass": "about"
    }
  }  

}
