{
  "store.custom#music-experience": {
    "blocks": [
      "flex-layout.row#banner-music-experience",
      "flex-layout.row#spotify-music-experience",
      "tab-layout#categorias-music-experience",
      "flex-layout.row#hast-music-experience"
    ]
  },

  "flex-layout.row#banner-music-experience": {
     "children": [
       "flex-layout.col#banner-izquierda-music-experience",
       "flex-layout.col#banner-derecha-music-experience"
     ],
     "props": {    
      "blockClass": "container-music-experience-banner"
     }   
  }, 
  "flex-layout.col#banner-izquierda-music-experience": {
     "children": ["video-music"],
     "props": {    
      "width": "50%",
      "blockClass": "banner-izquierda-music-experience"
     }
  }, 
  "video#banner-principal": {
    "props": {
      "width": "100%",
      "height": "398px",
      "loop": false,
      "autoPlay": true,
      "muted": true,
      "src": "https://www.youtube.com/embed/R3AqjGx0WZs?autoplay=1",
      "blockClass": "videoEl"
    }
  }, 
  "flex-layout.col#banner-derecha-music-experience": {
     "children": ["flex-layout.row#img-music-experience", "flex-layout.row#txt-music-experience"],
     "props": {  
        "width": "50%",
        "horizontalAlign": "center",
        "verticalAlign": "middle",         
        "blockClass": "container-banner-derecha-music-experience"
     }
  },
  "flex-layout.row#img-music-experience": {
     "children": [
       "image#music-experience-derecha"
     ],
     "props": {    
      "blockClass": "container-music-experience-banner"
     }   
  },   
  "image#music-experience-derecha": {
     "props": {
       "src": "https://merrellpe.vteximg.com.br/arquivos/LOGO_MME-musi-experience.png"
     }
  },
  "flex-layout.row#txt-music-experience": {
     "children": [
       "rich-text#txt-music-experience"
     ],
     "props": {    
      "blockClass": "container-txt-music-experience"
     }   
  },   
  "rich-text#txt-music-experience": {
      "props": {
        "text": "Fue creado para entregar una conexión entre la vida al aire libre y lo urbano, con estilo, música y sensaciones únicas.",
        "blockClass": "txt-music-experience"
      }
  },

  "flex-layout.row#spotify-music-experience": {
     "children": [
       "flex-layout.col#spotify-izquierda-music-experience",
       "flex-layout.col#spotify-derecha-music-experience"
     ],
     "props": {    
       "blockClass": "container-music-experience-spotify"
     }   
  }, 
  "flex-layout.col#spotify-derecha-music-experience": {
     "children": ["iframe"],
     "props": {            
        "blockClass": "spotify-derecha-music-experience"
     }
  },  
  "iframe": {
    "props": {
      "width": "100%",
      "height": "180px",
      "src": "https://open.spotify.com/embed/playlist/6WhofaujrAIqkaWY7C4o7V?utm_source=generator"
    }
  },  
  "flex-layout.col#spotify-izquierda-music-experience": {
     "children": ["flex-layout.row#spotify01-music-experience", "flex-layout.row#spotify02-music-experience", "flex-layout.row#spotify03-music-experience"],
     "props": { 
        "verticalAlign": "middle",        
        "blockClass": "spotify-izquierda-music-experience"
     }
  }, 
  "flex-layout.row#spotify01-music-experience": {
     "children": [
       "rich-text#spotify01-music-experience"
     ],
    "props": {
      "preventVerticalStretch": true
    }      
  },   
  "rich-text#spotify01-music-experience": {
    "props": {
      "text": "Dale Play y Conéctate con",
      "blockClass": "spotify01-music-experience"
    }
  },
  "flex-layout.row#spotify02-music-experience": {
     "children": [
       "rich-text#spotify02-music-experience"
     ] 
  },   
  "rich-text#spotify02-music-experience": {
    "props": {
      "text": "## #MerrellMusicExperience",
      "blockClass": "spotify02-music-experience"
    }
  },
  "flex-layout.row#spotify03-music-experience": {
     "children": [
       "rich-text#spotify03-music-experience"
     ]
  },   
  "rich-text#spotify03-music-experience": {
    "props": {
      "text": "[Descarga el Playlist aquí](https://open.spotify.com/embed/playlist/6WhofaujrAIqkaWY7C4o7V?utm_source=generator)",
      "blockClass": "spotify03-music-experience"
    }
  },    


  "tab-layout#categorias-music-experience": {
    "children": [
      "tab-list#tab-list-music-experience",
      "tab-content#tab-content-music-experience"
    ],
    "props": {
      "blockClass": "container-categorias-music-experience",
      "defaultActiveTabId": "todo-music"
    }
  },
  "tab-list#tab-list-music-experience": {
    "children": [
      //"tab-list.item#tab-list-item-todo",
      //"tab-list.item#tab-list-item-hombre",
      //"tab-list.item#tab-list-item-mujer"
    ],
    "props": {
      "blockClass": "container-tab-list-music-experience"
    }    
  },
  "tab-list.item#tab-list-item-todo": {
    "props": {
      "tabId": "todo-music",
      "label": "Todo",
      "defaultActiveTab": true
    }
  },
  "tab-list.item#tab-list-item-hombre": {
    "props": {
      "tabId": "hombre-music",
      "label": "Hombre"
    }
  },
  "tab-list.item#tab-list-item-mujer": {
    "props": {
      "tabId": "mujer-music",
      "label": "mujer"
    }
  },

 "tab-content#tab-content-music-experience": {
   "children": [
     "tab-content.item#todo-music",
     "tab-content.item#hombre-music",
     "tab-content.item#mujer-music"
   ]
 },
 "tab-content.item#todo-music": {
   "children": [
      "flex-layout.row#secciones-music-todo-1",
      "flex-layout.row#secciones-music-todo-2",
      "flex-layout.row#banner-secundario-music-experience",
      "flex-layout.row#secciones-music-todo-3",
      "flex-layout.row#secciones-music-todo-4",
      "flex-layout.row#banner-terciario-music-experience"   
   ],
   "props": {
     "tabId": "todo-music"
   }
 },

 /** Fila 1 img Todo **/
 "flex-layout.row#secciones-music-todo-1": {
   "children": [
     "flex-layout.col#img-music-tab-todo-1",
     "flex-layout.col#img-music-tab-todo-2",
     "flex-layout.col#img-music-tab-todo-3",
     "flex-layout.col#img-music-tab-todo-4"
   ],
   "props": {
      "blockClass": "secciones-music-todo"
   }   
 }, 
 /* 011 */
 "flex-layout.col#img-music-tab-todo-1": {
   "children": ["image#tab-music-todo-1","rich-text#btn-music-todo-1"],
   "props": {    
    "blockClass": "container-img-music-conten-tab"
   }
 },
 "image#tab-music-todo-1": {
   "props": {
     "blockClass": "img-music-conten-tab",
     "src": "https://merrellpe.vteximg.com.br/arquivos/Screenshot_3.jpg"     
   }
 },
 "rich-text#btn-music-todo-1": {
    "props": {
      "text": "[Ver look](/)", 
      "blockClass": "btn-music-tab"
    }
 },  
 /* fin 011 */
 /* 012 */
 "flex-layout.col#img-music-tab-todo-2": {
   "children": ["image#tab-music-todo-2","rich-text#btn-music-todo-2"],
   "props": {    
    "blockClass": "container-img-music-conten-tab"
   }
 },
 "image#tab-music-todo-2": {
   "props": {
     "blockClass": "img-music-conten-tab",
     "src": "https://merrellpe.vteximg.com.br/arquivos/Screenshot_3.jpg"     
   }
 },
 "rich-text#btn-music-todo-2": {
    "props": {
      "text": "[Ver look](/)",      
      "blockClass": "btn-music-tab"
    }
 }, 
 /* fin 012 */
  /* 01-3 */
 "flex-layout.col#img-music-tab-todo-3": {
   "children": ["image#tab-music-todo-3","rich-text#btn-music-todo-3"],
   "props": {    
    "blockClass": "container-img-music-conten-tab"
   }
 },
 "image#tab-music-todo-3": {
   "props": {
     "blockClass": "img-music-conten-tab",
     "src": "https://merrellpe.vteximg.com.br/arquivos/Screenshot_3.jpg"     
   }
 },
 "rich-text#btn-music-todo-3": {
    "props": {
      "text": "[Ver look](/)",      
      "blockClass": "btn-music-tab"
    }
 },  
 /* fin 01-3 */
   /* 01-4 */
 "flex-layout.col#img-music-tab-todo-4": {
   "children": ["image#tab-music-todo-4","rich-text#btn-music-todo-4"],
   "props": {    
    "blockClass": "container-img-music-conten-tab"
   }
 },
 "image#tab-music-todo-4": {
   "props": {
     "blockClass": "img-music-conten-tab",
     "src": "https://merrellpe.vteximg.com.br/arquivos/Screenshot_3.jpg"     
   }
 },
 "rich-text#btn-music-todo-4": {
    "props": {
      "text": "[Ver look](/)",      
      "blockClass": "btn-music-tab"
    }
 }, 
 /* fin 01-4 */
 /** Fin Fila 1 img Todo **/

 /** Fila 2 img Todo **/
 "flex-layout.row#secciones-music-todo-2": {
   "children": [
     "flex-layout.col#img-music-tab-todo-5",
     "flex-layout.col#img-music-tab-todo-6",
     "flex-layout.col#img-music-tab-todo-7",
     "flex-layout.col#img-music-tab-todo-8"
   ],
   "props": {
      "blockClass": "secciones-music-todo"
   }   
 }, 
 /* 01-5 */
 "flex-layout.col#img-music-tab-todo-5": {
   "children": ["image#tab-music-todo-5","rich-text#btn-music-todo-5"],
   "props": {    
    "blockClass": "container-img-music-conten-tab"
   }
 },
 "image#tab-music-todo-5": {
   "props": {
     "blockClass": "img-music-conten-tab",
     "src": "https://merrellpe.vteximg.com.br/arquivos/Screenshot_3.jpg"     
   }
 },
 "rich-text#btn-music-todo-5": {
    "props": {
      "text": "[Ver look](/)", 
      "blockClass": "btn-music-tab"
    }
 },  
 /* fin 01-5 */
 /* 01-6 */
 "flex-layout.col#img-music-tab-todo-6": {
   "children": ["image#tab-music-todo-6","rich-text#btn-music-todo-6"],
   "props": {    
    "blockClass": "container-img-music-conten-tab"
   }
 },
 "image#tab-music-todo-6": {
   "props": {
     "blockClass": "img-music-conten-tab",
     "src": "https://merrellpe.vteximg.com.br/arquivos/Screenshot_3.jpg"     
   }
 },
 "rich-text#btn-music-todo-6": {
    "props": {
      "text": "[Ver look](/)",      
      "blockClass": "btn-music-tab"
    }
 }, 
 /* fin 01-6 */
  /* 01-7 */
 "flex-layout.col#img-music-tab-todo-7": {
   "children": ["image#tab-music-todo-7","rich-text#btn-music-todo-7"],
   "props": {    
    "blockClass": "container-img-music-conten-tab"
   }
 },
 "image#tab-music-todo-7": {
   "props": {
     "blockClass": "img-music-conten-tab",
     "src": "https://merrellpe.vteximg.com.br/arquivos/Screenshot_3.jpg"     
   }
 },
 "rich-text#btn-music-todo-7": {
    "props": {
      "text": "[Ver look](/)",      
      "blockClass": "btn-music-tab"
    }
 },  
 /* fin 01-7 */
   /* 01-8 */
 "flex-layout.col#img-music-tab-todo-8": {
   "children": ["image#tab-music-todo-8","rich-text#btn-music-todo-8"],
   "props": {    
    "blockClass": "container-img-music-conten-tab"
   }
 },
 "image#tab-music-todo-8": {
   "props": {
     "blockClass": "img-music-conten-tab",
     "src": "https://merrellpe.vteximg.com.br/arquivos/Screenshot_3.jpg"     
   }
 },
 "rich-text#btn-music-todo-8": {
    "props": {
      "text": "[Ver look](/)",      
      "blockClass": "btn-music-tab"
    }
 }, 
 /* fin 01-8 */
 /** Fin Fila 2 img Todo **/

 /** Fila 3 img Todo **/
 "flex-layout.row#secciones-music-todo-3": {
   "children": [
     "flex-layout.col#img-music-tab-todo-9",
     "flex-layout.col#img-music-tab-todo-10",
     "flex-layout.col#img-music-tab-todo-11",
     "flex-layout.col#img-music-tab-todo-12"
   ],
   "props": {
      "blockClass": "secciones-music-todo"
   }   
 }, 
 /* 01-9 */
 "flex-layout.col#img-music-tab-todo-9": {
   "children": ["image#tab-music-todo-9","rich-text#btn-music-todo-9"],
   "props": {    
    "blockClass": "container-img-music-conten-tab"
   }
 },
 "image#tab-music-todo-9": {
   "props": {
     "blockClass": "img-music-conten-tab",
     "src": "https://merrellpe.vteximg.com.br/arquivos/Screenshot_3.jpg"     
   }
 },
 "rich-text#btn-music-todo-9": {
    "props": {
      "text": "[Ver look](/)", 
      "blockClass": "btn-music-tab"
    }
 },  
 /* fin 0-9 */
 /* 01-10 */
 "flex-layout.col#img-music-tab-todo-10": {
   "children": ["image#tab-music-todo-10","rich-text#btn-music-todo-10"],
   "props": {    
    "blockClass": "container-img-music-conten-tab"
   }
 },
 "image#tab-music-todo-10": {
   "props": {
     "blockClass": "img-music-conten-tab",
     "src": "https://merrellpe.vteximg.com.br/arquivos/Screenshot_3.jpg"     
   }
 },
 "rich-text#btn-music-todo-10": {
    "props": {
      "text": "[Ver look](/)", 
      "blockClass": "btn-music-tab"
    }
 },  
 /* fin 0-10 */
 /* 01-11 */
 "flex-layout.col#img-music-tab-todo-11": {
   "children": ["image#tab-music-todo-11","rich-text#btn-music-todo-11"],
   "props": {    
    "blockClass": "container-img-music-conten-tab"
   }
 },
 "image#tab-music-todo-11": {
   "props": {
     "blockClass": "img-music-conten-tab",
     "src": "https://merrellpe.vteximg.com.br/arquivos/Screenshot_3.jpg"     
   }
 },
 "rich-text#btn-music-todo-11": {
    "props": {
      "text": "[Ver look](/)", 
      "blockClass": "btn-music-tab"
    }
 },  
 /* fin 0-11 */
 /* 01-12 */
 "flex-layout.col#img-music-tab-todo-12": {
   "children": ["image#tab-music-todo-12","rich-text#btn-music-todo-12"],
   "props": {    
    "blockClass": "container-img-music-conten-tab"
   }
 },
 "image#tab-music-todo-12": {
   "props": {
     "blockClass": "img-music-conten-tab",
     "src": "https://merrellpe.vteximg.com.br/arquivos/Screenshot_3.jpg"     
   }
 },
 "rich-text#btn-music-todo-12": {
    "props": {
      "text": "[Ver look](/)", 
      "blockClass": "btn-music-tab"
    }
 },  
 /* fin 0-12 */
 /** Fin Fila 3 img Todo **/

 /** Fila 4 img Todo **/
 "flex-layout.row#secciones-music-todo-4": {
   "children": [
     "flex-layout.col#img-music-tab-todo-13",
     "flex-layout.col#img-music-tab-todo-14",
     "flex-layout.col#img-music-tab-todo-15",
     "flex-layout.col#img-music-tab-todo-16"
   ],
   "props": {
      "blockClass": "secciones-music-todo"
   }   
 },  
 /* 01-13 */
 "flex-layout.col#img-music-tab-todo-13": {
   "children": ["image#tab-music-todo-13","rich-text#btn-music-todo-13"],
   "props": {    
    "blockClass": "container-img-music-conten-tab"
   }
 },
 "image#tab-music-todo-13": {
   "props": {
     "blockClass": "img-music-conten-tab",
     "src": "https://merrellpe.vteximg.com.br/arquivos/Screenshot_3.jpg"     
   }
 },
 "rich-text#btn-music-todo-13": {
    "props": {
      "text": "[Ver look](/)", 
      "blockClass": "btn-music-tab"
    }
 },  
 /* fin 0-13 */ 
 /* 01-14 */
 "flex-layout.col#img-music-tab-todo-14": {
   "children": ["image#tab-music-todo-14","rich-text#btn-music-todo-14"],
   "props": {    
    "blockClass": "container-img-music-conten-tab"
   }
 },
 "image#tab-music-todo-14": {
   "props": {
     "blockClass": "img-music-conten-tab",
     "src": "https://merrellpe.vteximg.com.br/arquivos/Screenshot_3.jpg"     
   }
 },
 "rich-text#btn-music-todo-14": {
    "props": {
      "text": "[Ver look](/)", 
      "blockClass": "btn-music-tab"
    }
 },  
 /* fin 0-14 */  
 /* 01-15 */
 "flex-layout.col#img-music-tab-todo-15": {
   "children": ["image#tab-music-todo-15","rich-text#btn-music-todo-15"],
   "props": {    
    "blockClass": "container-img-music-conten-tab"
   }
 },
 "image#tab-music-todo-15": {
   "props": {
     "blockClass": "img-music-conten-tab",
     "src": "https://merrellpe.vteximg.com.br/arquivos/Screenshot_3.jpg"     
   }
 },
 "rich-text#btn-music-todo-15": {
    "props": {
      "text": "[Ver look](/)", 
      "blockClass": "btn-music-tab"
    }
 },  
 /* fin 0-15 */  
 /* 01-16 */
 "flex-layout.col#img-music-tab-todo-16": {
   "children": ["image#tab-music-todo-16","rich-text#btn-music-todo-16"],
   "props": {    
    "blockClass": "container-img-music-conten-tab"
   }
 },
 "image#tab-music-todo-16": {
   "props": {
     "blockClass": "img-music-conten-tab",
     "src": "https://merrellpe.vteximg.com.br/arquivos/Screenshot_3.jpg"     
   }
 },
 "rich-text#btn-music-todo-16": {
    "props": {
      "text": "[Ver look](/)", 
      "blockClass": "btn-music-tab"
    }
 },  
 /* fin 0-16 */  
 /** Fin Fila 4 img Todo **/


 "tab-content.item#hombre-music": {
   "children": [
     "flex-layout.row#secciones-music-hombre-1",
     "flex-layout.row#secciones-music-hombre-2",
     //"flex-layout.row#banner-secundario-music-experience",     
     //"flex-layout.row#secciones-music-hombre-3",
     "flex-layout.row#banner-terciario-music-experience"
   ],
   "props": {
     "tabId": "hombre-music"
   }
  },   
 /** Fila 1 img Hombre **/
 "flex-layout.row#secciones-music-hombre-1": {
   "children": [
     "flex-layout.col#img-music-tab-hombre-1",
     "flex-layout.col#img-music-tab-hombre-2",
     "flex-layout.col#img-music-tab-hombre-3",
     "flex-layout.col#img-music-tab-hombre-4"
   ],
   "props": {
      "blockClass": "secciones-music-todo"
   }   
 }, 
 /* 01-1 */
 "flex-layout.col#img-music-tab-hombre-1": {
   "children": ["image#tab-music-hombre-1","rich-text#btn-music-hombre-1"],
   "props": {    
    "blockClass": "container-img-music-conten-tab"
   }
 },
 "image#tab-music-hombre-1": {
   "props": {
     "blockClass": "img-music-conten-tab",
     "src": "https://merrellpe.vtexassets.com/assets/vtex.file-manager-graphql/images/a077ddea-1e30-46f4-b581-a76c1100a765___6cdc8bfec61dedc0ae69746e859d38c7.png"     
   }
 },
 "rich-text#btn-music-hombre-1": {
    "props": {
      "text": "[Ver look](/)", 
      "blockClass": "btn-music-tab"
    }
 },  
 /* fin 01-1 */
 /* 01-2 */
 "flex-layout.col#img-music-tab-hombre-2": {
   "children": ["image#tab-music-hombre-2","rich-text#btn-music-hombre-2"],
   "props": {    
    "blockClass": "container-img-music-conten-tab"
   }
 },
 "image#tab-music-hombre-2": {
   "props": {
     "blockClass": "img-music-conten-tab",
     "src": "https://merrellpe.vtexassets.com/assets/vtex.file-manager-graphql/images/a077ddea-1e30-46f4-b581-a76c1100a765___6cdc8bfec61dedc0ae69746e859d38c7.png"     
   }
 },
 "rich-text#btn-music-hombre-2": {
    "props": {
      "text": "[Ver look](/)",      
      "blockClass": "btn-music-tab"
    }
 }, 
 /* fin 01-2 */
 /* 01-3 */
 "flex-layout.col#img-music-tab-hombre-3": {
   "children": ["image#tab-music-hombre-3","rich-text#btn-music-hombre-3"],
   "props": {    
    "blockClass": "container-img-music-conten-tab"
   }
 },
 "image#tab-music-hombre-3": {
   "props": {
     "blockClass": "img-music-conten-tab",
     "src": "https://merrellpe.vtexassets.com/assets/vtex.file-manager-graphql/images/a077ddea-1e30-46f4-b581-a76c1100a765___6cdc8bfec61dedc0ae69746e859d38c7.png"     
   }
 },
 "rich-text#btn-music-hombre-3": {
    "props": {
      "text": "[Ver look](/)",      
      "blockClass": "btn-music-tab"
    }
 },  
 /* fin 01-3 */
 /* 01-4 */
 "flex-layout.col#img-music-tab-hombre-4": {
   "children": ["image#tab-music-hombre-4","rich-text#btn-music-hombre-4"],
   "props": {    
    "blockClass": "container-img-music-conten-tab"
   }
 },
 "image#tab-music-hombre-4": {
   "props": {
     "blockClass": "img-music-conten-tab",
     "src": "https://merrellpe.vtexassets.com/assets/vtex.file-manager-graphql/images/a077ddea-1e30-46f4-b581-a76c1100a765___6cdc8bfec61dedc0ae69746e859d38c7.png"     
   }
 },
 "rich-text#btn-music-hombre-4": {
    "props": {
      "text": "[Ver look](/)",      
      "blockClass": "btn-music-tab"
    }
 }, 
 /* fin 01-4 */
 /** Fin Fila 1 img Hombre **/

 /** Fila 2 img Hombre **/
 "flex-layout.row#secciones-music-hombre-2": {
   "children": [
     "flex-layout.col#img-music-tab-hombre-5",
     "flex-layout.col#img-music-tab-hombre-6",
     "flex-layout.col#img-music-tab-hombre-7",
     "flex-layout.col#img-music-tab-hombre-8"
   ],
   "props": {
      "blockClass": "secciones-music-todo"
   }   
 }, 
 /* 01-5 */
 "flex-layout.col#img-music-tab-hombre-5": {
   "children": ["image#tab-music-hombre-5","rich-text#btn-music-hombre-5"],
   "props": {    
    "blockClass": "container-img-music-conten-tab"
   }
 },
 "image#tab-music-hombre-5": {
   "props": {
     "blockClass": "img-music-conten-tab",
     "src": "https://merrellpe.vtexassets.com/assets/vtex.file-manager-graphql/images/a077ddea-1e30-46f4-b581-a76c1100a765___6cdc8bfec61dedc0ae69746e859d38c7.png"     
   }
 },
 "rich-text#btn-music-hombre-5": {
    "props": {
      "text": "[Ver look](/)", 
      "blockClass": "btn-music-tab"
    }
 },  
 /* fin 01-5 */
 /* 01-6 */
 "flex-layout.col#img-music-tab-hombre-6": {
   "children": ["image#tab-music-hombre-6","rich-text#btn-music-hombre-6"],
   "props": {    
    "blockClass": "container-img-music-conten-tab"
   }
 },
 "image#tab-music-hombre-6": {
   "props": {
     "blockClass": "img-music-conten-tab",
     "src": "https://merrellpe.vtexassets.com/assets/vtex.file-manager-graphql/images/a077ddea-1e30-46f4-b581-a76c1100a765___6cdc8bfec61dedc0ae69746e859d38c7.png"     
   }
 },
 "rich-text#btn-music-hombre-6": {
    "props": {
      "text": "[Ver look](/)",      
      "blockClass": "btn-music-tab"
    }
 }, 
 /* fin 01-6 */
 /* 01-7 */
 "flex-layout.col#img-music-tab-hombre-7": {
   "children": ["image#tab-music-hombre-7","rich-text#btn-music-hombre-7"],
   "props": {    
    "blockClass": "container-img-music-conten-tab"
   }
   /* fin 01-7 */
 },
 "image#tab-music-hombre-7": {
   "props": {
     "blockClass": "img-music-conten-tab",
     "src": "https://merrellpe.vtexassets.com/assets/vtex.file-manager-graphql/images/a077ddea-1e30-46f4-b581-a76c1100a765___6cdc8bfec61dedc0ae69746e859d38c7.png"     
   }
 },
 "rich-text#btn-music-hombre-7": {
    "props": {
      "text": "[Ver look](/)",      
      "blockClass": "btn-music-tab"
    }
 },  
 /* fin 01-7 */
 /* 01-8 */
 "flex-layout.col#img-music-tab-hombre-8": {
   "children": ["image#tab-music-hombre-8","rich-text#btn-music-hombre-8"],
   "props": {    
    "blockClass": "container-img-music-conten-tab"
   }
 },
 "image#tab-music-hombre-8": {
   "props": {
     "blockClass": "img-music-conten-tab",
     "src": "https://merrellpe.vtexassets.com/assets/vtex.file-manager-graphql/images/a077ddea-1e30-46f4-b581-a76c1100a765___6cdc8bfec61dedc0ae69746e859d38c7.png"     
   }
 },
 "rich-text#btn-music-hombre-8": {
    "props": {
      "text": "[Ver look](/)",      
      "blockClass": "btn-music-tab"
    }
 }, 
 /* fin 01-8 */
 /** Fin Fila 2 img Hombre **/

 /** Fila 3 img Hombre **/
 "flex-layout.row#secciones-music-hombre-3": {
   "children": [
     "flex-layout.col#img-music-tab-hombre-9",
     "flex-layout.col#img-music-tab-hombre-10",
     "flex-layout.col#img-music-tab-hombre-11",
     "flex-layout.col#img-music-tab-hombre-12"
   ],
   "props": {
      "blockClass": "secciones-music-todo"
   }   
 }, 
 /* 01-9 */
 "flex-layout.col#img-music-tab-hombre-9": {
   "children": ["image#tab-music-hombre-9","rich-text#btn-music-hombre-9"],
   "props": {    
    "blockClass": "container-img-music-conten-tab"
   }
 },
 "image#tab-music-hombre-9": {
   "props": {
     "blockClass": "img-music-conten-tab",
     "src": "https://merrellpe.vtexassets.com/assets/vtex.file-manager-graphql/images/a077ddea-1e30-46f4-b581-a76c1100a765___6cdc8bfec61dedc0ae69746e859d38c7.png"     
   }
 },
 "rich-text#btn-music-hombre-9": {
    "props": {
      "text": "[Ver look](/)", 
      "blockClass": "btn-music-tab"
    }
 },  
 /* fin 01-9 */
 /* 01-10 */
 "flex-layout.col#img-music-tab-hombre-10": {
   "children": ["image#tab-music-hombre-10","rich-text#btn-music-hombre-10"],
   "props": {    
    "blockClass": "container-img-music-conten-tab"
   }
 },
 "image#tab-music-hombre-10": {
   "props": {
     "blockClass": "img-music-conten-tab",
     "src": "https://merrellpe.vtexassets.com/assets/vtex.file-manager-graphql/images/a077ddea-1e30-46f4-b581-a76c1100a765___6cdc8bfec61dedc0ae69746e859d38c7.png"     
   }
 },
 "rich-text#btn-music-hombre-10": {
    "props": {
      "text": "[Ver look](/)",      
      "blockClass": "btn-music-tab"
    }
 }, 
 /* fin 01-10 */
 /* 01-11 */
 "flex-layout.col#img-music-tab-hombre-11": {
   "children": ["image#tab-music-hombre-11","rich-text#btn-music-hombre-11"],
   "props": {    
    "blockClass": "container-img-music-conten-tab"
   }
 },
 "image#tab-music-hombre-11": {
   "props": {
     "blockClass": "img-music-conten-tab",
     "src": "https://merrellpe.vtexassets.com/assets/vtex.file-manager-graphql/images/a077ddea-1e30-46f4-b581-a76c1100a765___6cdc8bfec61dedc0ae69746e859d38c7.png"     
   }
 },
 "rich-text#btn-music-hombre-11": {
    "props": {
      "text": "[Ver look](/)",      
      "blockClass": "btn-music-tab"
    }
 },  
 /* fin 01-11 */
 /* 01-12 */
 "flex-layout.col#img-music-tab-hombre-12": {
   "children": ["image#tab-music-hombre-12","rich-text#btn-music-hombre-12"],
   "props": {    
    "blockClass": "container-img-music-conten-tab"
   }
 },
 "image#tab-music-hombre-12": {
   "props": {
     "blockClass": "img-music-conten-tab",
     "src": "https://merrellpe.vtexassets.com/assets/vtex.file-manager-graphql/images/a077ddea-1e30-46f4-b581-a76c1100a765___6cdc8bfec61dedc0ae69746e859d38c7.png"     
   }
 },
 "rich-text#btn-music-hombre-12": {
    "props": {
      "text": "[Ver look](/)",      
      "blockClass": "btn-music-tab"
    }
 }, 
 /* fin 01-12 */
 /** Fin Fila 3 img Hombre **/
 

 "tab-content.item#mujer-music": {
   "children": [
     "flex-layout.row#secciones-music-mujer-1",
     "flex-layout.row#secciones-music-mujer-2",
     //"flex-layout.row#banner-secundario-music-experience",     
     //"flex-layout.row#secciones-music-mujer-3",
     "flex-layout.row#banner-terciario-music-experience"
   ],
   "props": {
     "tabId": "mujer-music"
   }
  }, 

 /** Fila 1 img mujer **/
 "flex-layout.row#secciones-music-mujer-1": {
   "children": [
     "flex-layout.col#img-music-tab-mujer-1",
     "flex-layout.col#img-music-tab-mujer-2",
     "flex-layout.col#img-music-tab-mujer-3",
     "flex-layout.col#img-music-tab-mujer-4"
   ],
   "props": {
      "blockClass": "secciones-music-todo"
   }   
 }, 
 /* 01-1 */
 "flex-layout.col#img-music-tab-mujer-1": {
   "children": ["image#tab-music-mujer-1","rich-text#btn-music-mujer-1"],
   "props": {    
    "blockClass": "container-img-music-conten-tab"
   }
 },
 "image#tab-music-mujer-1": {
   "props": {
     "blockClass": "img-music-conten-tab",
     "src": "https://merrellpe.vtexassets.com/assets/vtex.file-manager-graphql/images/a077ddea-1e30-46f4-b581-a76c1100a765___6cdc8bfec61dedc0ae69746e859d38c7.png"     
   }
 },
 "rich-text#btn-music-mujer-1": {
    "props": {
      "text": "[Ver look](/)", 
      "blockClass": "btn-music-tab"
    }
 },  
 /* fin 01-1 */
 /* 01-2 */
 "flex-layout.col#img-music-tab-mujer-2": {
   "children": ["image#tab-music-mujer-2","rich-text#btn-music-mujer-2"],
   "props": {    
    "blockClass": "container-img-music-conten-tab"
   }
 },
 "image#tab-music-mujer-2": {
   "props": {
     "blockClass": "img-music-conten-tab",
     "src": "https://merrellpe.vtexassets.com/assets/vtex.file-manager-graphql/images/a077ddea-1e30-46f4-b581-a76c1100a765___6cdc8bfec61dedc0ae69746e859d38c7.png"     
   }
 },
 "rich-text#btn-music-mujer-2": {
    "props": {
      "text": "[Ver look](/)",      
      "blockClass": "btn-music-tab"
    }
 }, 
 /* fin 01-2 */
 /* 01-3 */
 "flex-layout.col#img-music-tab-mujer-3": {
   "children": ["image#tab-music-mujer-3","rich-text#btn-music-mujer-3"],
   "props": {    
    "blockClass": "container-img-music-conten-tab"
   }
 },
 "image#tab-music-mujer-3": {
   "props": {
     "blockClass": "img-music-conten-tab",
     "src": "https://merrellpe.vtexassets.com/assets/vtex.file-manager-graphql/images/a077ddea-1e30-46f4-b581-a76c1100a765___6cdc8bfec61dedc0ae69746e859d38c7.png"     
   }
 },
 "rich-text#btn-music-mujer-3": {
    "props": {
      "text": "[Ver look](/)",      
      "blockClass": "btn-music-tab"
    }
 },  
 /* fin 01-3 */
 /* 01-4 */
 "flex-layout.col#img-music-tab-mujer-4": {
   "children": ["image#tab-music-mujer-4","rich-text#btn-music-mujer-4"],
   "props": {    
    "blockClass": "container-img-music-conten-tab"
   }
 },
 "image#tab-music-mujer-4": {
   "props": {
     "blockClass": "img-music-conten-tab",
     "src": "https://merrellpe.vtexassets.com/assets/vtex.file-manager-graphql/images/a077ddea-1e30-46f4-b581-a76c1100a765___6cdc8bfec61dedc0ae69746e859d38c7.png"     
   }
 },
 "rich-text#btn-music-mujer-4": {
    "props": {
      "text": "[Ver look](/)",      
      "blockClass": "btn-music-tab"
    }
 }, 
 /* fin 01-4 */
 /** Fin Fila 1 img mujer **/

 /** Fila 2 img mujer **/
 "flex-layout.row#secciones-music-mujer-2": {
   "children": [
     "flex-layout.col#img-music-tab-mujer-5",
     "flex-layout.col#img-music-tab-mujer-6",
     "flex-layout.col#img-music-tab-mujer-7",
     "flex-layout.col#img-music-tab-mujer-8"
   ],
   "props": {
      "blockClass": "secciones-music-todo"
   }   
 }, 
 /* 01-5 */
 "flex-layout.col#img-music-tab-mujer-5": {
   "children": ["image#tab-music-mujer-5","rich-text#btn-music-mujer-5"],
   "props": {    
    "blockClass": "container-img-music-conten-tab"
   }
 },
 "image#tab-music-mujer-5": {
   "props": {
     "blockClass": "img-music-conten-tab",
     "src": "https://merrellpe.vtexassets.com/assets/vtex.file-manager-graphql/images/a077ddea-1e30-46f4-b581-a76c1100a765___6cdc8bfec61dedc0ae69746e859d38c7.png"     
   }
 },
 "rich-text#btn-music-mujer-5": {
    "props": {
      "text": "[Ver look](/)", 
      "blockClass": "btn-music-tab"
    }
 },  
 /* fin 01-5 */
 /* 01-6 */
 "flex-layout.col#img-music-tab-mujer-6": {
   "children": ["image#tab-music-mujer-6","rich-text#btn-music-mujer-6"],
   "props": {    
    "blockClass": "container-img-music-conten-tab"
   }
 },
 "image#tab-music-mujer-6": {
   "props": {
     "blockClass": "img-music-conten-tab",
     "src": "https://merrellpe.vtexassets.com/assets/vtex.file-manager-graphql/images/a077ddea-1e30-46f4-b581-a76c1100a765___6cdc8bfec61dedc0ae69746e859d38c7.png"     
   }
 },
 "rich-text#btn-music-mujer-6": {
    "props": {
      "text": "[Ver look](/)",      
      "blockClass": "btn-music-tab"
    }
 }, 
 /* fin 01-6 */
 /* 01-7 */
 "flex-layout.col#img-music-tab-mujer-7": {
   "children": ["image#tab-music-mujer-7","rich-text#btn-music-mujer-7"],
   "props": {    
    "blockClass": "container-img-music-conten-tab"
   }
   /* fin 01-7 */
 },
 "image#tab-music-mujer-7": {
   "props": {
     "blockClass": "img-music-conten-tab",
     "src": "https://merrellpe.vtexassets.com/assets/vtex.file-manager-graphql/images/a077ddea-1e30-46f4-b581-a76c1100a765___6cdc8bfec61dedc0ae69746e859d38c7.png"     
   }
 },
 "rich-text#btn-music-mujer-7": {
    "props": {
      "text": "[Ver look](/)",      
      "blockClass": "btn-music-tab"
    }
 },  
 /* fin 01-7 */
 /* 01-8 */
 "flex-layout.col#img-music-tab-mujer-8": {
   "children": ["image#tab-music-mujer-8","rich-text#btn-music-mujer-8"],
   "props": {    
    "blockClass": "container-img-music-conten-tab"
   }
 },
 "image#tab-music-mujer-8": {
   "props": {
     "blockClass": "img-music-conten-tab",
     "src": "https://merrellpe.vtexassets.com/assets/vtex.file-manager-graphql/images/a077ddea-1e30-46f4-b581-a76c1100a765___6cdc8bfec61dedc0ae69746e859d38c7.png"     
   }
 },
 "rich-text#btn-music-mujer-8": {
    "props": {
      "text": "[Ver look](/)",      
      "blockClass": "btn-music-tab"
    }
 }, 
 /* fin 01-8 */
 /** Fin Fila 2 img mujer **/

 /** Fila 3 img mujer **/
 "flex-layout.row#secciones-music-mujer-3": {
   "children": [
     "flex-layout.col#img-music-tab-mujer-9",
     "flex-layout.col#img-music-tab-mujer-10",
     "flex-layout.col#img-music-tab-mujer-11",
     "flex-layout.col#img-music-tab-mujer-12"
   ],
   "props": {
      "blockClass": "secciones-music-todo"
   }   
 }, 
 /* 01-9 */
 "flex-layout.col#img-music-tab-mujer-9": {
   "children": ["image#tab-music-mujer-9","rich-text#btn-music-mujer-9"],
   "props": {    
    "blockClass": "container-img-music-conten-tab"
   }
 },
 "image#tab-music-mujer-9": {
   "props": {
     "blockClass": "img-music-conten-tab",
     "src": "https://merrellpe.vtexassets.com/assets/vtex.file-manager-graphql/images/a077ddea-1e30-46f4-b581-a76c1100a765___6cdc8bfec61dedc0ae69746e859d38c7.png"     
   }
 },
 "rich-text#btn-music-mujer-9": {
    "props": {
      "text": "[Ver look](/)", 
      "blockClass": "btn-music-tab"
    }
 },  
 /* fin 01-9 */
 /* 01-10 */
 "flex-layout.col#img-music-tab-mujer-10": {
   "children": ["image#tab-music-mujer-10","rich-text#btn-music-mujer-10"],
   "props": {    
    "blockClass": "container-img-music-conten-tab"
   }
 },
 "image#tab-music-mujer-10": {
   "props": {
     "blockClass": "img-music-conten-tab",
     "src": "https://merrellpe.vtexassets.com/assets/vtex.file-manager-graphql/images/a077ddea-1e30-46f4-b581-a76c1100a765___6cdc8bfec61dedc0ae69746e859d38c7.png"     
   }
 },
 "rich-text#btn-music-mujer-10": {
    "props": {
      "text": "[Ver look](/)",      
      "blockClass": "btn-music-tab"
    }
 }, 
 /* fin 01-10 */
 /* 01-11 */
 "flex-layout.col#img-music-tab-mujer-11": {
   "children": ["image#tab-music-mujer-11","rich-text#btn-music-mujer-11"],
   "props": {    
    "blockClass": "container-img-music-conten-tab"
   }
 },
 "image#tab-music-mujer-11": {
   "props": {
     "blockClass": "img-music-conten-tab",
     "src": "https://merrellpe.vtexassets.com/assets/vtex.file-manager-graphql/images/a077ddea-1e30-46f4-b581-a76c1100a765___6cdc8bfec61dedc0ae69746e859d38c7.png"     
   }
 },
 "rich-text#btn-music-mujer-11": {
    "props": {
      "text": "[Ver look](/)",      
      "blockClass": "btn-music-tab"
    }
 },  
 /* fin 01-11 */
 /* 01-12 */
 "flex-layout.col#img-music-tab-mujer-12": {
   "children": ["image#tab-music-mujer-12","rich-text#btn-music-mujer-12"],
   "props": {    
    "blockClass": "container-img-music-conten-tab"
   }
 },
 "image#tab-music-mujer-12": {
   "props": {
     "blockClass": "img-music-conten-tab",
     "src": "https://merrellpe.vtexassets.com/assets/vtex.file-manager-graphql/images/a077ddea-1e30-46f4-b581-a76c1100a765___6cdc8bfec61dedc0ae69746e859d38c7.png"     
   }
 },
 "rich-text#btn-music-mujer-12": {
    "props": {
      "text": "[Ver look](/)",      
      "blockClass": "btn-music-tab"
    }
 }, 
 /* fin 01-12 */
 /** Fin Fila 3 img mujer **/


  "flex-layout.row#banner-secundario-music-experience": {
     "children": [
       "flex-layout.col#banner-secundario-izquierda-music-experience",
       "flex-layout.col#banner-secundario-derecha-music-experience"
     ],
     "props": {    
      "blockClass": "container-music-experience-banner"
     }   
  }, 
  "flex-layout.col#banner-secundario-izquierda-music-experience": {
     "children": ["image#banner-secundario-experience-izquierda"],
     "props": {    
       "width": "50%",
       "horizontalAlign": "center",
       "verticalAlign": "middle",       
       "blockClass": "banner-secundario-experience-izquierda"
     }
  },
  "image#banner-secundario-experience-izquierda": {
     "props": {
      "width": "70%",
       "src": "https://merrellpe.vteximg.com.br/arquivos/LOGO_MME-musi-experience.png"
     }
  },   
  "flex-layout.col#banner-secundario-derecha-music-experience": {
     "children": ["image#banner-secundario-experience-derecha"],
     "props": {    
      "width": "50%",
      "blockClass": "banner-secundario-experience-derecha"
     }
  },
  "image#banner-secundario-experience-derecha": {
     "props": {
       "src": "https://www.merrell.com/on/demandware.static/-/Sites-merrell_es-Library/default/dw95ac56bb/content/seasonal-content/landing-pages/about-us/2021/07/images/hero-image-d.jpg",
       "blockClass": "img-secundario-experience-derecha"
     }
  },







  "flex-layout.row#banner-terciario-music-experience": {
     "children": [
       "flex-layout.col#banner-terciario-izquierda-music-experience",
       "flex-layout.col#banner-terciario-derecha-music-experience"
       
     ],
     "props": {    
      "blockClass": "container-music-experience-banner"
     }   
  },    
  "flex-layout.col#banner-terciario-izquierda-music-experience": {
     "children": ["image#banner-terciario-experience-izquierda"],
     "props": {    
      "width": "50%",
      "blockClass": "banner-terciario-experience-izquierda"
     }
  },
  "image#banner-terciario-experience-izquierda": {
     "props": {
       "src": "https://www.merrell.com/on/demandware.static/-/Sites-merrell_es-Library/default/dw95ac56bb/content/seasonal-content/landing-pages/about-us/2021/07/images/hero-image-d.jpg",
       "blockClass": "img-terciario-experience-izquierda"
     }
  },
  "flex-layout.col#banner-terciario-derecha-music-experience": {
     "children": ["image#banner-terciario-experience-derecha"],
     "props": {    
      "width": "50%",
       "horizontalAlign": "center",
       "verticalAlign": "middle",        
      "blockClass": "banner-terciario-experience-derecha"
     }
  },
  "image#banner-terciario-experience-derecha": {
     "props": {   
     "width": "70%",   
       "src": "https://merrellpe.vteximg.com.br/arquivos/LOGO_MME-musi-experience.png"
     }
  },

  "flex-layout.row#hast-music-experience": {
     "children": ["flex-layout.col#hast-music-experience"],
     "props": {    
      "blockClass": "container-hast-music-experience"
     }   
  }, 
  "flex-layout.col#hast-music-experience": {
     "children": ["rich-text#hast-music-experience"],
     "props": {  
        "horizontalAlign": "center",
        "verticalAlign": "middle",  
        "blockClass": "hast-music-experience"
     }
  }, 
  "rich-text#hast-music-experience": {
      "props": {
        "text": "## #MerrellMusicExperience",
        "blockClass": "hast-music-experience"
      }
  }      
}