{
  "footer": {
    "blocks": ["footer-layout.desktop", "footer-layout.mobile"]
  },
  "footer-layout.desktop": {
    "children": [
      "hello-world",
      "flex-layout.row#footer-imagen-full",
      "flex-layout.row#footer-suscribete",      
      "flex-layout.row#footer-0-desktop",
      //"flex-layout.row#footer-copygraf",
      "flex-layout.row#ruc-footer",
      "sandbox#footerScript01",
      "sandbox#footerScript02"
    ]
  },
  "flex-layout.row#footer-suscribete": {
    "children": [
      "flex-layout.col#suscribete",
      "flex-layout.col#botones-footer",
      "flex-layout.col#social-footer"
    ],
    "props":{
      "id":"suscribeteseccion",
      "blockClass": "container-footer-suscribete",
      "fullWidth": true
    }
  },
  "flex-layout.col#suscribete": {
    "children": ["flex-layout.col#footer-2-desktop"],
    "props": {
      "verticalAlign": "middle"
    }
  },
  "flex-layout.col#botones-footer": {
    "children": ["modal-trigger#guiadetallas-footer"],//, "rich-text#boton-02-footer"
    "props": {
      "blockClass": "botones-footer",
      "verticalAlign": "middle"
    }
  },
  "modal-trigger#guiadetallas-footer":{
    "children":[
      "rich-text#boton-01-footer",
      "modal-layout#guiadetallas"
    ]
  },  
  "rich-text#boton-01-footer": {
    "props": {
      "text": "Guía de tallas",
      "blockClass": "btn-button-footer"
    }
  },
  "rich-text#boton-02-footer": {
    "props": {
      "text": "[Sustainability](/hombre)",
      "blockClass": "btn-button-footer"
    }
  },  
  "flex-layout.col#social-footer": {
    "children": ["flex-layout.row#icono-footer-container"],
    "props": {
      "verticalAlign": "middle"      
    }
  },  
  "flex-layout.row#icono-footer-container": {
    "children":["flex-layout.col#ico-instagram", "flex-layout.col#ico-facebook", "flex-layout.col#ico-twitter", "flex-layout.col#ico-youtube"],
    "props": {
      "blockClass": "social-footer-mobil"
    }
  },
  "flex-layout.col#ico-instagram": {
    "children": ["image#nstagram-logo"],
    "props": {
      "horizontalAlign": "center"
    }
  },
  "image#nstagram-logo":{
    "props":{
      "src": "/arquivos/icon-instagram.png",
      "target" : "_blank",
      "link": { "url": "https://es-la.facebook.com/stevemadden.peru/" },
      "blockClass": "footer-social-network-logo"
    }
  },
  "flex-layout.col#ico-facebook": {
    "children": ["image#facebook-logo-fb"],
    "props": {
      "horizontalAlign": "center"
    }    
  },
  "image#facebook-logo-fb":{
    "props":{
      "src": "/arquivos/icon-facebook.png",
      "target" : "_blank",
      "link": { "url": "https://es-la.facebook.com/stevemadden.peru/" },
      "blockClass": "footer-social-network-logo"
    }
  },  
  "flex-layout.col#ico-twitter":{
    "children": ["image#twitter-logo"],
    "props": {
      "horizontalAlign": "center"
    }    
  },
  "image#twitter-logo":{
    "props":{
      "src": "/arquivos/icon-twitter.png",
      "target" : "_blank",
      "link": { "url": "https://es-la.facebook.com/stevemadden.peru/" },
      "blockClass": "footer-social-network-logo"
    }
  },  
  "flex-layout.col#ico-youtube": {
    "children": ["image#youtube-logo"],
    "props": {
      "horizontalAlign": "center"
    }    
  },
  "image#youtube-logo":{
    "props":{
      "src": "/arquivos/icon-youtube.png",
      "target" : "_blank",
      "link": { "url": "https://es-la.facebook.com/stevemadden.peru/" },
      "blockClass": "footer-social-network-logo"
    }
  },  

  "flex-layout.row#footer-imagen-full": {
    "children": ["image#footer-imagen-full"],
    "props": {
      "horizontalAlign": "CENTER",
      "verticalAlign": "CENTER",
      "blockClass": "container-footer-imagen-full"
    }
  },
  "image#footer-imagen-full":{
    "props":{
      "src": "https://www.merrell.com/on/demandware.static/-/Sites-merrell_us-Library/default/images/merrell-footer-logo-holiday-2021.png",
      "target" : "_blank",
      "link": { "url": "https://es-la.facebook.com/stevemadden.peru/" },
      "blockClass": "footer-imagen-full",
      "maxWidth": "50%"
    }
  }, 
  "flex-layout.row#footer-0-desktop":{
    "children":[      
      "flex-layout.col#footer-1-desktop"
      //"flex-layout.col#footer-2-desktop"
    ],
    "props":{
      "blockClass":"main-footer-desk",
      "horizontalAlign": "center"
    }
  },  
  "flex-layout.col#footer-1-desktop":{
    "children":[
      "flex-layout.row#footer-1-desktop"
    ],
    "props":{
      "blockClass": "col-left-footer",
      "width": "80%"
    }
  },

  "flex-layout.col#footer-2-desktop":{
    "children":[
      "flex-layout.row#footer-container-newsletter",
      //"newsletter",
      "modal-trigger#popup-footer"
      //"flex-layout.row#footer-social-networks"
    ],
    "props":{
      "blockClass": "col-right-footer",
      "width": "35%",
      "preventVerticalStretch": true
    }
  },
//"rich-text#suscribete-footer-text",
//"rich-text#suscribete-footer-text-vistoso",
  "flex-layout.row#footer-container-newsletter": {
    "children":[
      "flex-layout.col#title-newsletter-col",
      "flex-layout.col#guion-newsletter-col",
      "flex-layout.col#parrafo-newsletter-col"
    ]
  },
  "flex-layout.col#title-newsletter-col": {
    "children": ["rich-text#suscribete-footer-text"],
    "props": {
      "width": "40%",
      "verticalAlign": "middle"
    }    
  },
  "flex-layout.col#guion-newsletter-col": {
    "children": ["rich-text#suscribete-footer-guion-vistoso"],
    "props": {
      "width": "10%",
      "verticalAlign": "middle"
    }    
  },
  "flex-layout.col#parrafo-newsletter-col": {
    "children": ["rich-text#suscribete-footer-text-vistoso"],
    "props": {
      "width": "50%",
      "verticalAlign": "middle"
    }
  },    
  "rich-text#suscribete-footer-text":{
    "props":{
      "text": "Join the trail",
      "blockClass": "suscribete-footer-text"
    }
  },
  "rich-text#suscribete-footer-guion-vistoso": {
    "props": {
      "text": "-",
      "blockClass": "deco-line"
    }
  },
  "rich-text#suscribete-footer-text-vistoso":{
    "props":{
      "text": "Get 15% off your next Merrell.com purchase. Plus other VIP perks.",
      "blockClass": ["suscribete-footer-parrafo"]
    }
  },

  "newsletter":{
    "props":{
      "label": "",
      "placeholder": "Ingrese su correo electrónico",
      "submit": ">",
      "blockClass": "newsletter-footer"
    }
  },

  "flex-layout.row#footer-social-networks":{
    "children":[
      //"image#facebook-logo",
      //"image#instagram-logo",
      "rich-text#footer-social-networks"
    ],
    "props":{
      "preventHorizontalStretch": true,
      "blockClass": "footer-social-network-logo"
    }
  },

  "image#facebook-logo":{
    "props":{
      "src": "/arquivos/logo-facebook.png",
      "maxHeight": 20,
      "target" : "_blank",
      "link": { "url": "https://es-la.facebook.com/stevemadden.peru/" },
      "blockClass": "footer-social-network-logo"
    }
  },

  "image#instagram-logo":{
    "props":{
      "src": "/arquivos/logo-instagram.png",
      "maxHeight": 20,
      "target" : "_blank",
      "link": { "url": "https://www.instagram.com/stevemaddenperu/" },
      "blockClass": "footer-social-network-logo"
    }
  },

  "rich-text#footer-social-networks":{
    "props":{
      "text": "This site is protected by reCAPTCHA and the Google Privacy Policy and Terms of Service apply. Merrell Privacy Policy",
      "blockClass": "footer-social-network-text"
    }
  },

  "flex-layout.row#footer-1-desktop": {
    "children": [
      //links.jsonc
      "vtex.menu@2.x:menu#HelpLinks",
      "vtex.menu@2.x:menu#CategoryLinks",
      "vtex.menu@2.x:menu#ContactLinks",
      "vtex.menu@2.x:menu#SocialLinks"
    ],
    "props":{
      "blockClass": "footer-menu-row",
      "width": "auto"
    }
  },

  "social-networks": {
    "props": {
      "socialNetworks": [
        {
          "name": "Facebook",
          "url": "https://www.facebook.com/vtexonline/"
        },
        {
          "name": "Instagram",
          "url": "https://www.instagram.com/vtextruecloud/"
        },
        {
          "name": "Twitter",
          "url": "https://twitter.com/vtexonline"
        },
        {
          "name": "Youtube",
          "url": "https://www.youtube.com/user/VTEXTV"
        }
      ]
    }
  },

  "accepted-payment-methods": {
    "props": {
      "paymentMethods": ["MasterCard", "Visa", "Diners Club"]
    }
  },

  //FOOTER MOBILE

  "footer-layout.mobile": {
    "children": [    
      "hello-world",  
      "flex-layout.row#2-footer-mobile",
      //"flex-layout.row#footer-social-networks",
      "flex-layout.row#1-footer-mobile",
      //"rich-text#tienda-marca",
      "flex-layout.row#footer-copygraf-mobil",
      "flex-layout.row#ruc-footer",
      "sandbox#footerScript01",
      "sandbox#footerScript02"      
    ],
    "props":{
      "blockClass": "footer-container-mobile"
    }
  },

  "flex-layout.row#1-footer-mobile": {
    "props": {
      "blockClass": "footer-main-content-mobile"
    },
    "children": ["vtex.menu@2.x:menu#footer-mobile"]
  },

  "flex-layout.row#2-footer-mobile": {
    "children": [
      "rich-text#suscribete-footer-text",
      "rich-text#suscribete-footer-text-vistoso",
      //"newsletter",
      "modal-trigger#popup-footer",
      "flex-layout.row#footer-social-networks",
      "flex-layout.col#botones-footer",
      "flex-layout.col#social-footer"      
    ],
    "props":{
      "blockClass": "footer-container-newsletter-mobile"
    }
  },

  "rich-text#tienda-marca":{
    "props":{
      "text": "2021 Steve Madden Ltd.",
      "blockClass": "footer-text-tienda-marca"
    }
  },

  "flex-layout.row#ruc-footer":{
    "children":["rich-text#ruc-footer"],
    "props": {
      "blockClass": "ruc-text-container",
      "horizontalAlign": "center",
      "preventHorizontalStretch": true
    }
  },

  "rich-text#ruc-footer": {
    "props": {
      "text": "RUC: 20459980963 <br> Razón Social: Solidez Empresarial",
      "blockClass": "ruc-text"
    }
  },  

  "flex-layout.row#footer-copygraf": {
    "children": ["flex-layout.col#contry-footer", "flex-layout.col#links-footer", "flex-layout.col#derechos-reservados-footer"],
    "props": {
      "blockClass": "nanonbar-link-footer"
    }
  },
  "flex-layout.col#contry-footer":{
    "children":["rich-text#contry-footer"],
    "props": {
      "width": "10%",
      "verticalAlign": "center"
    }    
  },
  "rich-text#contry-footer": {
    "props": {
      "text": "Peru",
      "blockClass": "contry-text"
    }
  },
  "flex-layout.col#links-footer":{
    "children": ["vtex.menu@2.x:menu#menu-link-footer"],
    "props": {
      "width": "70%",
      "verticalAlign": "center"
    }    
  },
  "vtex.menu@2.x:menu#menu-link-footer": {
    "children": [
      "menu-item#sitemap",
      "menu-item#accesibilidad",
      "menu-item#privacidad",
      "menu-item#informacion-personal",
      "menu-item#terminos",
      "menu-item#transparencia"
    ]
  },
  "menu-item#sitemap": {
    "props": {
      "id": "menu-item-site-map",
      "type": "custom",
      "iconId": null,
      "highlight": false,
      "blockClass": "link-footer-copy",
      "itemProps": {
        "type": "internal",
        "href": "/",
        "noFollow": false,
        "tagTitle": "Site Map",
        "text":"Site Map"
      }
    }    
  },
  "menu-item#accesibilidad": {
    "props": {
      "id": "menu-item-accesibilidad-politicas",
      "type": "custom",
      "iconId": null,
      "highlight": false,
      "blockClass": "link-footer-copy",
      "itemProps": {
        "type": "internal",
        "href": "/",
        "noFollow": false,
        "tagTitle": "Politicas de Accesibilidad",
        "text":"Politicas de Accesibilidad"
      }
    }     
  },
  "menu-item#privacidad":{
    "props": {
      "id": "menu-item-privacidad",
      "type": "custom",
      "iconId": null,
      "highlight": false,
      "blockClass": "link-footer-copy",
      "itemProps": {
        "type": "internal",
        "href": "/",
        "noFollow": false,
        "tagTitle": "Privacidad",
        "text":"Privacidad"
      }
    } 
  },
  "menu-item#informacion-personal": {
    "props": {
      "id": "menu-item-informacion-personal",
      "type": "custom",
      "iconId": null,
      "highlight": false,
      "blockClass": "link-footer-copy",
      "itemProps": {
        "type": "internal",
        "href": "/",
        "noFollow": false,
        "tagTitle": "Informacion Personal",
        "text":"Informacion Personal"
      }   
    } 
  },
  "menu-item#terminos": {
    "props": {
      "id": "menu-item-terminos",
      "type": "custom",
      "iconId": null,
      "highlight": false,
      "blockClass": "link-footer-copy",
      "itemProps": {
        "type": "internal",
        "href": "/terminos-y-condiciones",
        "noFollow": false,
        "tagTitle": "Terminos",
        "text":"Terminos"
      }   
    }     
  },
  "menu-item#transparencia":{
    "props": {
      "id": "menu-item-trasparencia",
      "type": "custom",
      "iconId": null,
      "highlight": false,
      "blockClass": "link-footer-copy",
      "itemProps": {
        "type": "internal",
        "href": "/",
        "noFollow": false,
        "tagTitle": "Transparencia",
        "text":"Transparencia"
      }   
    }     
  },
  "flex-layout.col#derechos-reservados-footer": {
    "children": ["rich-text#texto-derechos-autor"],
    "props": {
      "width": "20%",
      "verticalAlign": "center"
    }
  },
  "rich-text#texto-derechos-autor": {
    "props":{
      "text": "© 2021 Merrell All rights reserved",
      "blockClass": "copyright"
    }
  },


 "modal-trigger#popup-footer": {
    "children": [
      "rich-text#click-popup",      
      "modal-layout#modal-popup"
    ]
  },

 "modal-layout#modal-popup": {
    "children": [
      "image#img-popup",
      "rich-text#modal-content",
      "flex-layout.row#modal-form"  
    ]
  },
  "image#img-popup":{
    "props":{
      "src": "/arquivos/21-12-2022.png",
      "blockClass": "contenedor-tallas"
    }    
  },

  "rich-text#modal-content": {
    "props": {
      "text": "SUSCRÍBETE Y OBTÉN UN 10% DE DESCUENTO EN TU PRIMERA COMPRA",
      "blockClass": "modal-titulo-suscribete"
    }
  },

  "flex-layout.row#modal-form": {
    "children": ["flex-layout.col#form-suscribete"]
  },

  "flex-layout.col#form-suscribete": {
    "children": ["form#suscribete"],
    "props": {
      "blockClass": "form-container-suscribete"
    }
  },

  /* Inicio formulario suscribete */
  "form#suscribete": {
    "props": { 
                "entity": "SU", 
                "schema": "schema_suscibete", 
                "blockClass": "form-suscribete-children" 
    },                     
    "blocks": ["form-success#suscribete"],
    "children": ["flex-layout.col#newsletter-inputs"]
  },
  "flex-layout.col#newsletter-inputs": {
    "title": "Newsletter Form",
    "props": {
      "blockClass": "newsletter-form"
    },
    "children": ["flex-layout.row#newsletter-form-data-1", "flex-layout.row#newsletter-form-data-2", "flex-layout.row#newsletter-form-data-3"]
  },
  "flex-layout.row#newsletter-form-data-1": {
    "props": {
      "blockClass": "newsletter-data-1"
    },
    "children": [
      "form-input.text#suscribete-nombre",
      "form-input.text#suscribete-apellidos"
      //"form-submit"
    ]
  },
  "form-input.text#suscribete-nombre": {
    "props": {
      "pointer": "#/properties/nombre",
      "placeholder": "Ingresa tu nombre",
      "label": ""
    }
  },
  "form-input.text#suscribete-apellidos": {
    "props": {
      "pointer": "#/properties/apellidos",
      "placeholder": "Ingresa tu apellido",
      "label": ""
    }
  },     

  "flex-layout.row#newsletter-form-data-2": {
    "props": {
      "blockClass": "newsletter-data-2"
    },
    "children": [
      "form-input.text#suscribete-correo",
      "form-input.dropdown#suscribete-sexo",
      "form-input.text#suscribete-cumpleanos"
    ]
  },
  "form-input.text#suscribete-correo": {
    "props": {
      "pointer": "#/properties/correo",
      "label": "",
      "placeholder": "Ingresa tu correo"
    }
  },
  "form-input.dropdown#suscribete-sexo": {
    "props": {
      "pointer": "#/properties/sexo",
      "label": "Selecciona tu sexo",
      "blockClass": "input-sexo"
    }
  }, 
  "form-input.text#suscribete-cumpleanos": {
    "props": {
      "pointer": "#/properties/cumpleanos",
      "label": "",
      "placeholder": "Ingresa tu cumpleaños DD/MM/AAAA"
    }
  }, 

  "flex-layout.row#newsletter-form-data-3": {
    "props": {
      "blockClass": "newsletter-data-3"
    },
    "children": [
      "form-input.checkbox#suscribete-terminos_condiciones",
      "form-input.checkbox#suscribete-politicas_privacidad",
      "form-submit#suscribete"
    ]
  },
  "form-input.checkbox#suscribete-terminos_condiciones": {
    "props": {
      "pointer": "#/properties/terminos_condiciones"
    }
  },
  "form-input.checkbox#suscribete-politicas_privacidad": {
    "props": {
      "pointer": "#/properties/politicas_privacidad"
    }
  },
  "form-submit#suscribete": {
    "props": {
      "label": "Enviar"
    }
  },

  "form-success#suscribete": {
    "children": [
      "rich-text#suscribete-success-submit"
    ]
  },
  "rich-text#suscribete-success-submit": {
    "props": {
      "text": "HOLA24",
      "textAlignment": "CENTER",
      "textPosition": "CENTER"
    }
  },     
  /* Fin formulario suscribete */

  "sandbox#footerScript01": {
    "props": {
      "width": "0px",
      "height": "0px",
      "blockClass": "footerScript01",
      "initialContent": "<script> gtag('event','conversion', {'send_to': 'AW-123456789/AbC-D_efG-h12_34-567','value': 123.05,'currency': 'USD' });</script>"
    }
  },
  "sandbox#footerScript02": {
    "props": {
      "width": "0px",
      "height": "0px",
      "initialContent": "<!-- Start of merrellperu Zendesk Widget script --><script id='ze-snippet' src='https://static.zdassets.com/ekr/snippet.js?key=95aa5aa1-b37c-44e3-9ae2-1c97fa350d28'> </script><!-- End of merrellperu Zendesk Widget script -->"
    }
  }    
}

