{
  "store.custom#uso-diario-mujer": {
    "blocks": ["search-result-layout.customQuery#uso-diario-mujer"]
  },

  "search-result-layout.customQuery#uso-diario-mujer": {
    "props": {
      "querySchema": {
        "maxItemsPerPage": 30,
        "orderByField": "OrderByReleaseDateDESC",
        "hideUnavailableItems": true,
        "facetsBehavior": "Dynamic",
        "skusFilter": "ALL",
        "simulationBehavior": "default",
        "installmentCriteria": "MAX_WITHOUT_INTEREST",
        "__unstableProductOriginVtex": true,
        "mapField": "productClusterIds",
        "queryField": "/mujer/141"
      }
    },
    "blocks": [
      "search-result-layout.desktop",
      "search-result-layout.mobile",
      "search-not-found-layout"
    ]
  }
}